{
  "description": "Vanilla Debian Stretch base box, built using contrib sources",
  "variables": {
    "box_version": "9.2.0",
    "box_changelog": "* New point release"
    },
  "builders": [
    {
      "boot_command": [
        "<esc><wait>",
        "install <wait>",
        "preseed/url=http://{{ .HTTPIP }}:{{ .HTTPPort }}/stretch-preseed.cfg <wait>",
        "auto <wait>",
        "locale=en_US <wait>",
        "netcfg/get_hostname={{ .Name }} <wait>",
        "netcfg/get_domain=localdomain <wait>",
        "debconf/frontend=noninteractive <wait>",
        "console-setup/ask_detect=false <wait>",
        "kbd-chooser/method=us <wait>",
        "console-keymaps-at/keymap=us <wait>",
        "keyboard-configuration/xkb-keymap=us <wait>",
        "net.ifnames=0 <wait>",
        "<enter><wait>"
      ],
      "disk_size": "10140",
      "disk_interface": "virtio",
      "headless": true,
      "http_directory": "http",
      "iso_checksum": "ec78bc48b48d676775b60eda41528ec33c151c2ce7414a12b13d9b73d34de544",
      "iso_checksum_type": "sha256",
      "iso_url": "http://cdimage.debian.org/debian-cd/current/amd64/iso-cd/debian-9.2.1-amd64-netinst.iso",
      "shutdown_command": "sudo /sbin/halt -p",
      "ssh_password": "vagrant",
      "ssh_username": "vagrant",
      "ssh_port": "22",
      "ssh_wait_timeout": "10000s",
      "type": "qemu",
      "qemuargs": [[ "-m", "1024M" ],[ "-smp", "2" ]],
      "accelerator": "kvm",
      "vm_name": "contrib-stretch",
      "output_directory": "contrib-stretch.build",
      "format": "raw"
    }
  ],
  "provisioners": [
    {
      "type": "shell",
      "pause_before": "5s",
      "execute_command": "echo 'vagrant'| {{.Vars}} sudo --preserve-env --stdin sh '{{.Path}}'",
      "environment_vars": [
         "VAGRANT_BUILDER_FS=/",
         "VAGRANT_BUILDER_HOSTNAME=contrib-stretch"
      ],
      "scripts": [
        "../helpers/vagrant-setup",
        "scripts/vb-guest-additions-stretch.sh",
        "scripts/minimize.sh"
      ]
    }
  ]
}
